Suicide Rates – Home
…
Suicide Rates

    Work in Progress

listTodata <- split(sR, sR$year)
listTodata

$`1985`
# A tibble: 576 × 12
   country           year sex   age   suicides_no population `suicides/100k pop`
   <chr>            <dbl> <chr> <chr>       <dbl>      <dbl>               <dbl>
 1 Antigua and Bar…  1985 fema… 15-2…           0       7709                   0
 2 Antigua and Bar…  1985 fema… 25-3…           0       6344                   0
 3 Antigua and Bar…  1985 fema… 35-5…           0       6173                   0
 4 Antigua and Bar…  1985 fema… 5-14…           0       7339                   0
 5 Antigua and Bar…  1985 fema… 55-7…           0       3778                   0
 6 Antigua and Bar…  1985 fema… 75+ …           0        949                   0
 7 Antigua and Bar…  1985 male  15-2…           0       7667                   0
 8 Antigua and Bar…  1985 male  25-3…           0       6194                   0
 9 Antigua and Bar…  1985 male  35-5…           0       5970                   0
10 Antigua and Bar…  1985 male  5-14…           0       7304                   0
# ℹ 566 more rows
# ℹ 5 more variables: `country-year` <chr>, `HDI for year` <dbl>,
#   `gdp_for_year ($)` <dbl>, `gdp_per_capita ($)` <dbl>, generation <chr>

$`1986`
# A tibble: 576 × 12
   country           year sex   age   suicides_no population `suicides/100k pop`
   <chr>            <dbl> <chr> <chr>       <dbl>      <dbl>               <dbl>
 1 Antigua and Bar…  1986 fema… 15-2…           0       7668                   0
 2 Antigua and Bar…  1986 fema… 25-3…           0       6209                   0
 3 Antigua and Bar…  1986 fema… 35-5…           0       6101                   0
 4 Antigua and Bar…  1986 fema… 5-14…           0       6907                   0
 5 Antigua and Bar…  1986 fema… 55-7…           0       3764                   0
 6 Antigua and Bar…  1986 fema… 75+ …           0       1014                   0
 7 Antigua and Bar…  1986 male  15-2…           0       7563                   0
 8 Antigua and Bar…  1986 male  25-3…           0       6023                   0
 9 Antigua and Bar…  1986 male  35-5…           0       5947                   0
10 Antigua and Bar…  1986 male  5-14…           0       6827                   0
# ℹ 566 more rows
# ℹ 5 more variables: `country-year` <chr>, `HDI for year` <dbl>,
#   `gdp_for_year ($)` <dbl>, `gdp_per_capita ($)` <dbl>, generation <chr>

$`1987`
# A tibble: 648 × 12
   country  year sex    age         suicides_no population `suicides/100k pop`
   <chr>   <dbl> <chr>  <chr>             <dbl>      <dbl>               <dbl>
 1 Albania  1987 male   15-24 years          21     312900                6.71
 2 Albania  1987 male   35-54 years          16     308000                5.19
 3 Albania  1987 female 15-24 years          14     289700                4.83
 4 Albania  1987 male   75+ years             1      21800                4.59
 5 Albania  1987 male   25-34 years           9     274300                3.28
 6 Albania  1987 female 75+ years             1      35600                2.81
 7 Albania  1987 female 35-54 years           6     278800                2.15
 8 Albania  1987 female 25-34 years           4     257200                1.56
 9 Albania  1987 male   55-74 years           1     137500                0.73
10 Albania  1987 female 5-14 years            0     311000                0   
# ℹ 638 more rows
# ℹ 5 more variables: `country-year` <chr>, `HDI for year` <dbl>,
#   `gdp_for_year ($)` <dbl>, `gdp_per_capita ($)` <dbl>, generation <chr>

$`1988`
# A tibble: 588 × 12
   country  year sex    age         suicides_no population `suicides/100k pop`
   <chr>   <dbl> <chr>  <chr>             <dbl>      <dbl>               <dbl>
 1 Albania  1988 female 75+ years             2      36400                5.49
 2 Albania  1988 male   15-24 years          17     319200                5.33
 3 Albania  1988 male   75+ years             1      22300                4.48
 4 Albania  1988 male   35-54 years          14     314100                4.46
 5 Albania  1988 male   55-74 years           4     140200                2.85
 6 Albania  1988 female 15-24 years           8     295600                2.71
 7 Albania  1988 female 55-74 years           3     147500                2.03
 8 Albania  1988 female 25-34 years           5     262400                1.91
 9 Albania  1988 male   25-34 years           5     279900                1.79
10 Albania  1988 female 35-54 years           4     284500                1.41
# ℹ 578 more rows
# ℹ 5 more variables: `country-year` <chr>, `HDI for year` <dbl>,
#   `gdp_for_year ($)` <dbl>, `gdp_per_capita ($)` <dbl>, generation <chr>

$`1989`
# A tibble: 624 × 12
   country  year sex    age         suicides_no population `suicides/100k pop`
   <chr>   <dbl> <chr>  <chr>             <dbl>      <dbl>               <dbl>
 1 Albania  1989 male   75+ years             2      22500                8.89
 2 Albania  1989 male   25-34 years          18     283600                6.35
 3 Albania  1989 male   35-54 years          15     318400                4.71
 4 Albania  1989 male   55-74 years           6     142100                4.22
 5 Albania  1989 male   15-24 years          12     323500                3.71
 6 Albania  1989 female 35-54 years           7     288600                2.43
 7 Albania  1989 female 15-24 years           5     299900                1.67
 8 Albania  1989 female 25-34 years           2     266300                0.75
 9 Albania  1989 female 55-74 years           1     149600                0.67
10 Albania  1989 female 5-14 years            0     321900                0   
# ℹ 614 more rows
# ℹ 5 more variables: `country-year` <chr>, `HDI for year` <dbl>,
#   `gdp_for_year ($)` <dbl>, `gdp_per_capita ($)` <dbl>, generation <chr>

$`1990`
# A tibble: 768 × 12
   country           year sex   age   suicides_no population `suicides/100k pop`
   <chr>            <dbl> <chr> <chr>       <dbl>      <dbl>               <dbl>
 1 Antigua and Bar…  1990 male  35-5…           1       5799                17.2
 2 Antigua and Bar…  1990 fema… 15-2…           0       6827                 0  
 3 Antigua and Bar…  1990 fema… 25-3…           0       6172                 0  
 4 Antigua and Bar…  1990 fema… 35-5…           0       5895                 0  
 5 Antigua and Bar…  1990 fema… 5-14…           0       6877                 0  
 6 Antigua and Bar…  1990 fema… 55-7…           0       3706                 0  
 7 Antigua and Bar…  1990 fema… 75+ …           0       1252                 0  
 8 Antigua and Bar…  1990 male  15-2…           0       6598                 0  
 9 Antigua and Bar…  1990 male  25-3…           0       5937                 0  
10 Antigua and Bar…  1990 male  5-14…           0       6611                 0  
# ℹ 758 more rows
# ℹ 5 more variables: `country-year` <chr>, `HDI for year` <dbl>,
#   `gdp_for_year ($)` <dbl>, `gdp_per_capita ($)` <dbl>, generation <chr>

$`1991`
# A tibble: 768 × 12
   country           year sex   age   suicides_no population `suicides/100k pop`
   <chr>            <dbl> <chr> <chr>       <dbl>      <dbl>               <dbl>
 1 Antigua and Bar…  1991 fema… 15-2…           0       6595                   0
 2 Antigua and Bar…  1991 fema… 25-3…           0       6396                   0
 3 Antigua and Bar…  1991 fema… 35-5…           0       6198                   0
 4 Antigua and Bar…  1991 fema… 5-14…           0       7089                   0
 5 Antigua and Bar…  1991 fema… 55-7…           0       3665                   0
 6 Antigua and Bar…  1991 fema… 75+ …           0       1293                   0
 7 Antigua and Bar…  1991 male  15-2…           0       6401                   0
 8 Antigua and Bar…  1991 male  25-3…           0       6156                   0
 9 Antigua and Bar…  1991 male  35-5…           0       6122                   0
10 Antigua and Bar…  1991 male  5-14…           0       6818                   0
# ℹ 758 more rows
# ℹ 5 more variables: `country-year` <chr>, `HDI for year` <dbl>,
#   `gdp_for_year ($)` <dbl>, `gdp_per_capita ($)` <dbl>, generation <chr>

$`1992`
# A tibble: 780 × 12
   country  year sex    age         suicides_no population `suicides/100k pop`
   <chr>   <dbl> <chr>  <chr>             <dbl>      <dbl>               <dbl>
 1 Albania  1992 male   35-54 years          12     343800                3.49
 2 Albania  1992 male   15-24 years           9     263700                3.41
 3 Albania  1992 male   55-74 years           5     159500                3.13
 4 Albania  1992 male   25-34 years           7     245500                2.85
 5 Albania  1992 female 15-24 years           7     292400                2.39
 6 Albania  1992 female 25-34 years           4     267400                1.5 
 7 Albania  1992 female 35-54 years           2     323100                0.62
 8 Albania  1992 female 55-74 years           1     164900                0.61
 9 Albania  1992 female 5-14 years            0     336700                0   
10 Albania  1992 female 75+ years             0      38700                0   
# ℹ 770 more rows
# ℹ 5 more variables: `country-year` <chr>, `HDI for year` <dbl>,
#   `gdp_for_year ($)` <dbl>, `gdp_per_capita ($)` <dbl>, generation <chr>

$`1993`
# A tibble: 780 × 12
   country  year sex    age         suicides_no population `suicides/100k pop`
   <chr>   <dbl> <chr>  <chr>             <dbl>      <dbl>               <dbl>
 1 Albania  1993 male   15-24 years          18     243300                7.4 
 2 Albania  1993 male   55-74 years           7     165000                4.24
 3 Albania  1993 male   75+ years             1      24200                4.13
 4 Albania  1993 male   25-34 years           9     230100                3.91
 5 Albania  1993 female 15-24 years          10     285300                3.51
 6 Albania  1993 male   35-54 years          10     350300                2.85
 7 Albania  1993 female 25-34 years           7     261800                2.67
 8 Albania  1993 female 35-54 years           7     331200                2.11
 9 Albania  1993 female 55-74 years           2     169500                1.18
10 Albania  1993 female 5-14 years            1     340300                0.29
# ℹ 770 more rows
# ℹ 5 more variables: `country-year` <chr>, `HDI for year` <dbl>,
#   `gdp_for_year ($)` <dbl>, `gdp_per_capita ($)` <dbl>, generation <chr>

$`1994`
# A tibble: 816 × 12
   country  year sex    age         suicides_no population `suicides/100k pop`
   <chr>   <dbl> <chr>  <chr>             <dbl>      <dbl>               <dbl>
 1 Albania  1994 male   75+ years             2      24600                8.13
 2 Albania  1994 male   55-74 years          11     171400                6.42
 3 Albania  1994 female 75+ years             2      39900                5.01
 4 Albania  1994 male   25-34 years           6     231400                2.59
 5 Albania  1994 male   35-54 years           9     362800                2.48
 6 Albania  1994 male   15-24 years           6     242200                2.48
 7 Albania  1994 female 15-24 years           6     282600                2.12
 8 Albania  1994 female 25-34 years           4     261100                1.53
 9 Albania  1994 female 35-54 years           2     342500                0.58
10 Albania  1994 female 55-74 years           1     174600                0.57
# ℹ 806 more rows
# ℹ 5 more variables: `country-year` <chr>, `HDI for year` <dbl>,
#   `gdp_for_year ($)` <dbl>, `gdp_per_capita ($)` <dbl>, generation <chr>

$`1995`
# A tibble: 936 × 12
   country  year sex    age         suicides_no population `suicides/100k pop`
   <chr>   <dbl> <chr>  <chr>             <dbl>      <dbl>               <dbl>
 1 Albania  1995 male   25-34 years          13     232900                5.58
 2 Albania  1995 male   55-74 years           9     178000                5.06
 3 Albania  1995 female 75+ years             2      40800                4.9 
 4 Albania  1995 female 15-24 years          13     283500                4.59
 5 Albania  1995 male   15-24 years          11     241200                4.56
 6 Albania  1995 male   75+ years             1      25100                3.98
 7 Albania  1995 male   35-54 years          14     375900                3.72
 8 Albania  1995 female 25-34 years           7     264000                2.65
 9 Albania  1995 female 35-54 years           8     356400                2.24
10 Albania  1995 male   5-14 years            6     376500                1.59
# ℹ 926 more rows
# ℹ 5 more variables: `country-year` <chr>, `HDI for year` <dbl>,
#   `gdp_for_year ($)` <dbl>, `gdp_per_capita ($)` <dbl>, generation <chr>

$`1996`
# A tibble: 924 × 12
   country  year sex    age         suicides_no population `suicides/100k pop`
   <chr>   <dbl> <chr>  <chr>             <dbl>      <dbl>               <dbl>
 1 Albania  1996 male   75+ years             2      25400                7.87
 2 Albania  1996 male   15-24 years          17     243600                6.98
 3 Albania  1996 male   25-34 years          14     235300                5.95
 4 Albania  1996 female 15-24 years          16     287700                5.56
 5 Albania  1996 female 75+ years             2      41200                4.85
 6 Albania  1996 female 25-34 years          10     267900                3.73
 7 Albania  1996 male   35-54 years          12     379600                3.16
 8 Albania  1996 female 35-54 years           9     362000                2.49
 9 Albania  1996 male   55-74 years           3     179900                1.67
10 Albania  1996 female 55-74 years           1     183100                0.55
# ℹ 914 more rows
# ℹ 5 more variables: `country-year` <chr>, `HDI for year` <dbl>,
#   `gdp_for_year ($)` <dbl>, `gdp_per_capita ($)` <dbl>, generation <chr>

$`1997`
# A tibble: 924 × 12
   country  year sex    age         suicides_no population `suicides/100k pop`
   <chr>   <dbl> <chr>  <chr>             <dbl>      <dbl>               <dbl>
 1 Albania  1997 male   25-34 years          36     236000               15.2 
 2 Albania  1997 male   15-24 years          33     244400               13.5 
 3 Albania  1997 male   75+ years             3      25400               11.8 
 4 Albania  1997 male   35-54 years          30     380800                7.88
 5 Albania  1997 female 15-24 years          21     294000                7.14
 6 Albania  1997 male   55-74 years          12     180300                6.66
 7 Albania  1997 female 25-34 years          16     273900                5.84
 8 Albania  1997 female 75+ years             2      42100                4.75
 9 Albania  1997 female 35-54 years           7     370100                1.89
10 Albania  1997 female 5-14 years            6     361800                1.66
# ℹ 914 more rows
# ℹ 5 more variables: `country-year` <chr>, `HDI for year` <dbl>,
#   `gdp_for_year ($)` <dbl>, `gdp_per_capita ($)` <dbl>, generation <chr>

$`1998`
# A tibble: 948 × 12
   country  year sex    age         suicides_no population `suicides/100k pop`
   <chr>   <dbl> <chr>  <chr>             <dbl>      <dbl>               <dbl>
 1 Albania  1998 male   75+ years             3      25800               11.6 
 2 Albania  1998 male   15-24 years          27     248800               10.8 
 3 Albania  1998 female 15-24 years          32     295600               10.8 
 4 Albania  1998 male   25-34 years          26     240400               10.8 
 5 Albania  1998 male   35-54 years          29     388200                7.47
 6 Albania  1998 male   55-74 years           9     183800                4.9 
 7 Albania  1998 female 25-34 years          10     275300                3.63
 8 Albania  1998 female 55-74 years           6     188200                3.19
 9 Albania  1998 female 35-54 years           9     372100                2.42
10 Albania  1998 male   5-14 years            2     388400                0.51
# ℹ 938 more rows
# ℹ 5 more variables: `country-year` <chr>, `HDI for year` <dbl>,
#   `gdp_for_year ($)` <dbl>, `gdp_per_capita ($)` <dbl>, generation <chr>

$`1999`
# A tibble: 996 × 12
   country  year sex    age         suicides_no population `suicides/100k pop`
   <chr>   <dbl> <chr>  <chr>             <dbl>      <dbl>               <dbl>
 1 Albania  1999 male   75+ years             3      25900               11.6 
 2 Albania  1999 male   15-24 years          24     250600                9.58
 3 Albania  1999 female 75+ years             4      42400                9.43
 4 Albania  1999 male   35-54 years          31     391100                7.93
 5 Albania  1999 male   25-34 years          19     242300                7.84
 6 Albania  1999 male   55-74 years          14     185200                7.56
 7 Albania  1999 female 15-24 years          19     296800                6.4 
 8 Albania  1999 female 25-34 years          13     276500                4.7 
 9 Albania  1999 female 55-74 years           6     188800                3.18
10 Albania  1999 female 35-54 years           5     373600                1.34
# ℹ 986 more rows
# ℹ 5 more variables: `country-year` <chr>, `HDI for year` <dbl>,
#   `gdp_for_year ($)` <dbl>, `gdp_per_capita ($)` <dbl>, generation <chr>

$`2000`
# A tibble: 1,032 × 12
   country  year sex    age         suicides_no population `suicides/100k pop`
   <chr>   <dbl> <chr>  <chr>             <dbl>      <dbl>               <dbl>
 1 Albania  2000 male   25-34 years          17     232000                7.33
 2 Albania  2000 male   55-74 years          10     177400                5.64
 3 Albania  2000 female 75+ years             2      37800                5.29
 4 Albania  2000 male   75+ years             1      24900                4.02
 5 Albania  2000 female 15-24 years           6     263900                2.27
 6 Albania  2000 male   15-24 years           5     240000                2.08
 7 Albania  2000 female 35-54 years           5     332200                1.51
 8 Albania  2000 female 25-34 years           3     245800                1.22
 9 Albania  2000 male   35-54 years           4     374700                1.07
10 Albania  2000 male   5-14 years            1     374900                0.27
# ℹ 1,022 more rows
# ℹ 5 more variables: `country-year` <chr>, `HDI for year` <dbl>,
#   `gdp_for_year ($)` <dbl>, `gdp_per_capita ($)` <dbl>, generation <chr>

$`2001`
# A tibble: 1,056 × 12
   country  year sex    age         suicides_no population `suicides/100k pop`
   <chr>   <dbl> <chr>  <chr>             <dbl>      <dbl>               <dbl>
 1 Albania  2001 male   25-34 years          22     206484               10.6 
 2 Albania  2001 male   35-54 years          34     378826                8.98
 3 Albania  2001 male   55-74 years          11     196670                5.59
 4 Albania  2001 female 75+ years             2      47254                4.23
 5 Albania  2001 male   15-24 years          10     256039                3.91
 6 Albania  2001 female 15-24 years           9     271359                3.32
 7 Albania  2001 female 35-54 years          12     370191                3.24
 8 Albania  2001 male   75+ years             1      31044                3.22
 9 Albania  2001 female 55-74 years           6     189799                3.16
10 Albania  2001 male   5-14 years            6     321556                1.87
# ℹ 1,046 more rows
# ℹ 5 more variables: `country-year` <chr>, `HDI for year` <dbl>,
#   `gdp_for_year ($)` <dbl>, `gdp_per_capita ($)` <dbl>, generation <chr>
…
