Home - Exploratory: Best Video Game
…
dataVG_Fil %>% 
  select(Name, Platform, Metascore , Date, Platform_Frequency) %>% 
  group_by(Platform)

# A tibble: 100 × 5
# Groups:   Platform [18]
   Name                              Platform Metascore Date  Platform_Frequency
   <chr>                             <chr>        <dbl> <chr>              <int>
 1 The Legend of Zelda: Ocarina of … Nintend…        99 23-N…                  4
 2 Tony Hawk's Pro Skater 2          PlaySta…        98 20-S…                  5
 3 Grand Theft Auto IV               PlaySta…        98 29-A…                 13
 4 SoulCalibur                       Dreamca…        98 8-Se…                  3
 5 Grand Theft Auto IV               Xbox 360        98 29-A…                 13
 6 Super Mario Galaxy                Wii             97 12-N…                  4
 7 Super Mario Galaxy 2              Wii             97 23-M…                  4
 8 Red Dead Redemption 2             Xbox One        97 26-O…                  4
 9 Grand Theft Auto V                Xbox One        97 18-N…                  4
10 Grand Theft Auto V                PlaySta…        97 17-S…                 13
# ℹ 90 more rows
…
